<?xml version="1.0" encoding="UTF-8" standalone="no"?>
<!-- Created with Inkscape (http://www.inkscape.org/) -->

<svg
   xmlns:dc="http://purl.org/dc/elements/1.1/"
   xmlns:cc="http://creativecommons.org/ns#"
   xmlns:rdf="http://www.w3.org/1999/02/22-rdf-syntax-ns#"
   xmlns:svg="http://www.w3.org/2000/svg"
   xmlns="http://www.w3.org/2000/svg"
   xmlns:xlink="http://www.w3.org/1999/xlink"
   xmlns:sodipodi="http://sodipodi.sourceforge.net/DTD/sodipodi-0.dtd"
   xmlns:inkscape="http://www.inkscape.org/namespaces/inkscape"
   width="550"
   height="440"
   id="svg2"
   version="1.1"
   inkscape:version="0.48.5 r10040"
   sodipodi:docname="logo-organiza-ae-flag.svg"
   inkscape:export-filename="/home/aurium/Projetos/organiza-ae-art/Imagens/logo-organiza-ae-flag.png"
   inkscape:export-xdpi="40"
   inkscape:export-ydpi="40">
  <defs
     id="defs4">
    <linearGradient
       id="linearGradient4048">
      <stop
         id="stop4050"
         offset="0"
         style="stop-color:#ff8080;stop-opacity:1" />
      <stop
         style="stop-color:#ff0000;stop-opacity:1"
         offset="0.21818182"
         id="stop4052" />
      <stop
         style="stop-color:#aa0000;stop-opacity:1"
         offset="0.40000001"
         id="stop4056" />
      <stop
         style="stop-color:#aa0000;stop-opacity:1"
         offset="0.60000002"
         id="stop4058" />
      <stop
         style="stop-color:#ff0000;stop-opacity:1"
         offset="0.78181821"
         id="stop4062" />
      <stop
         id="stop4064"
         offset="1"
         style="stop-color:#ff8080;stop-opacity:1" />
    </linearGradient>
    <linearGradient
       id="linearGradient3789">
      <stop
         id="stop3804"
         offset="0"
         style="stop-color:#4d4d4d;stop-opacity:1" />
      <stop
         style="stop-color:#1a1a1a;stop-opacity:1"
         offset="0.21818179"
         id="stop3810" />
      <stop
         style="stop-color:#000000;stop-opacity:1"
         offset="0.39999995"
         id="stop3840" />
      <stop
         style="stop-color:#000000;stop-opacity:1"
         offset="0.5999999"
         id="stop3836" />
      <stop
         id="stop3816"
         offset="0.78181809"
         style="stop-color:#1a1a1a;stop-opacity:1" />
      <stop
         style="stop-color:#4d4d4d;stop-opacity:1"
         offset="1"
         id="stop3794" />
    </linearGradient>
    <linearGradient
       inkscape:collect="always"
       xlink:href="#linearGradient3789"
       id="linearGradient3796"
       x1="495.71429"
       y1="658.07648"
       x2="1045.7144"
       y2="658.07648"
       gradientUnits="userSpaceOnUse"
       gradientTransform="translate(0,-70)" />
    <mask
       maskUnits="userSpaceOnUse"
       id="mask4096">
      <g
         id="g4098"
         transform="translate(30,-32)"
         style="fill:#0000ff;fill-opacity:1;stroke:#ffffff">
        <path
           sodipodi:nodetypes="ccc"
           inkscape:connector-curvature="0"
           id="path4100"
           d="m 23.436508,313.67857 c 0,0 80.267852,-7.50396 112.662692,20.43056 18.55755,-2.47619 68.66865,-36.27382 91.08334,-63.2758"
           style="color:#000000;fill:none;stroke:#ffffff;stroke-width:20;stroke-linecap:round;stroke-linejoin:round;stroke-miterlimit:4;stroke-opacity:1;stroke-dasharray:none;stroke-dashoffset:0;marker:none;visibility:visible;display:inline;overflow:visible;enable-background:accumulate" />
        <path
           sodipodi:nodetypes="ccc"
           inkscape:connector-curvature="0"
           id="path4102"
           d="m 156.74603,221.23016 c 35.71429,-15.87302 48.2381,-42.03968 54.19048,-60.88889 11.93452,8.9504 7.50396,48.61111 2.14087,68.13889"
           style="color:#000000;fill:none;stroke:#ffffff;stroke-width:20;stroke-linecap:round;stroke-linejoin:round;stroke-miterlimit:4;stroke-opacity:1;stroke-dasharray:none;stroke-dashoffset:0;marker:none;visibility:visible;display:inline;overflow:visible;enable-background:accumulate" />
        <path
           inkscape:connector-curvature="0"
           id="path4104"
           d="M 223.92857,236 C 247.5,202.41071 242.78571,187.67857 255.16071,158.80357 251.625,203 245.14286,217.73214 246.91071,242.48214"
           style="color:#000000;fill:none;stroke:#ffffff;stroke-width:20;stroke-linecap:round;stroke-linejoin:round;stroke-miterlimit:4;stroke-opacity:1;stroke-dasharray:none;stroke-dashoffset:0;marker:none;visibility:visible;display:inline;overflow:visible;enable-background:accumulate" />
        <path
           inkscape:connector-curvature="0"
           id="path4106"
           d="m 275.78571,246.01786 c 5.30358,-44.78572 19.44643,-60.69643 30.64286,-75.42857 13.55357,20.625 32.41071,33.58928 57.75,23.57142"
           style="color:#000000;fill:none;stroke:#ffffff;stroke-width:20;stroke-linecap:round;stroke-linejoin:round;stroke-miterlimit:4;stroke-opacity:1;stroke-dasharray:none;stroke-dashoffset:0;marker:none;visibility:visible;display:inline;overflow:visible;enable-background:accumulate"
           sodipodi:nodetypes="ccc" />
        <path
           inkscape:connector-curvature="0"
           id="path4108"
           d="m 229.23214,283.14286 c 16.5,24.16071 24.75,42.42857 30.05357,62.46428 -38.89285,3.53572 -18.85714,-10.01785 -48.32142,-19.44643 -10.60715,5.89286 -8.83929,0.58929 -11.78572,10.01786"
           style="color:#000000;fill:none;stroke:#ffffff;stroke-width:20;stroke-linecap:round;stroke-linejoin:round;stroke-miterlimit:4;stroke-opacity:1;stroke-dasharray:none;stroke-dashoffset:0;marker:none;visibility:visible;display:inline;overflow:visible;enable-background:accumulate" />
        <path
           sodipodi:nodetypes="ccc"
           inkscape:connector-curvature="0"
           id="path4110"
           d="m 289.33929,283.73214 c 30.05357,33 61.37887,36.69063 90.84315,40.22634 C 404.34316,319.24419 445.5,310.25 466.71429,310.83929"
           style="color:#000000;fill:none;stroke:#ffffff;stroke-width:20;stroke-linecap:round;stroke-linejoin:round;stroke-miterlimit:4;stroke-opacity:1;stroke-dasharray:none;stroke-dashoffset:0;marker:none;visibility:visible;display:inline;overflow:visible;enable-background:accumulate" />
        <path
           inkscape:connector-curvature="0"
           id="path4112"
           d="m 170.74321,256.63436 c 13.84352,6.20152 32.66794,10.05697 51.01529,4.40263"
           style="color:#000000;fill:#0000ff;fill-opacity:1;stroke:#ffffff;stroke-width:30;stroke-linecap:round;stroke-linejoin:round;stroke-miterlimit:4;stroke-opacity:1;stroke-dasharray:none;stroke-dashoffset:0;marker:none;visibility:visible;display:inline;overflow:visible;enable-background:accumulate"
           sodipodi:nodetypes="cc" />
        <path
           sodipodi:nodetypes="ccscssscsc"
           inkscape:connector-curvature="0"
           id="path4114"
           d="m 190.92857,286.67857 c 24.16072,-7.66071 30.5727,-45.36564 3.9239,-59.07823 22.39286,-8.83928 40.68479,4.97322 53.23681,6.04252 10.66087,0.9082 18.85715,2.94642 29.46429,-10.01786 2.36573,3.59081 7.04567,10.84788 24.55154,4.12977 9.73607,-3.73635 22.85932,13.49465 20.27191,30.0547 -2.4334,15.57439 -20.05607,30.28308 -27.73416,34.76196 -7.07144,4.125 -14.73215,8.25 -21.80357,15.32143 -12.96429,-20.625 -28.875,-17.67857 -42.42858,-14.73215 -13.55357,2.94643 -18.85714,2.35715 -39.48214,-6.48214 z"
           style="color:#000000;fill:#ffffff;fill-opacity:1;fill-rule:nonzero;stroke:#ffffff;stroke-width:10;stroke-linecap:round;stroke-linejoin:round;stroke-miterlimit:4;stroke-dasharray:none;marker:none;visibility:visible;display:inline;overflow:visible;enable-background:accumulate" />
        <path
           style="fill:#ffffff;fill-opacity:1;stroke:#ffffff;stroke-width:5;stroke-linecap:round;stroke-linejoin:round;stroke-miterlimit:4;stroke-dasharray:none"
           d="m 194.46429,256.625 c -8.25,-31.23214 -23.57143,-58.33929 -63.64286,-55.98214 C 90.75,203 59.517857,233.04375 59.517857,250.73214 c 0,23.57143 27.606216,45.83377 60.107143,55.39286 40.07143,11.78571 60.10714,-13.55357 69.53571,-33.58929 4.51531,-3.92317 5.30358,-15.91071 5.30358,-15.91071 z"
           id="path4116"
           inkscape:connector-curvature="0"
           sodipodi:nodetypes="cssscc" />
        <path
           style="color:#000000;fill:none;stroke:#ffffff;stroke-width:10;stroke-linecap:round;stroke-linejoin:round;stroke-miterlimit:4;stroke-opacity:1;stroke-dasharray:none;stroke-dashoffset:0;marker:none;visibility:visible;display:inline;overflow:visible;enable-background:accumulate"
           d="m 393.64286,280.19643 c 17.67857,2.94643 24.16071,9.42857 28.28571,15.91071 18.26786,-7.66071 40.66072,-14.14285 40.66072,-14.14285"
           id="path4118"
           inkscape:connector-curvature="0" />
        <path
           style="color:#000000;fill:none;stroke:#ffffff;stroke-width:10;stroke-linecap:round;stroke-linejoin:round;stroke-miterlimit:4;stroke-opacity:1;stroke-dasharray:none;stroke-dashoffset:0;marker:none;visibility:visible;display:inline;overflow:visible;enable-background:accumulate"
           d="m 397.76786,241.30357 c 11.19643,-14.14286 8.83928,-19.44643 8.25,-29.46428 15.32143,-6.48215 40.66071,-18.85715 40.66071,-18.85715"
           id="path4120"
           inkscape:connector-curvature="0" />
        <path
           sodipodi:nodetypes="scccccccccccscccccc"
           inkscape:connector-curvature="0"
           id="path4122"
           d="m 343.87692,200.20105 c -18.11018,-0.1151 -36.50223,7.25893 -48.65625,14.625 6.48215,35.94643 20.0625,44.80357 -4.6875,80.75 24.75,-1.17857 37.35203,23.90266 78.23258,14.81637 11.19643,7.66071 28.42367,-3.05744 24.29867,-18.37887 6.48214,-6.48214 9.40625,-14.71875 9.40625,-14.71875 11.04235,-1.44031 19.30113,-1.68872 24.75,-12.375 l -10,-7.0625 9.4375,-7.09375 c -5.3565,-9.52395 -13.5001,-10.57905 -23.59375,-8.75 0,0 -3.76146,-6.46042 -5.52931,-14.12113 5.36532,-18.73364 -11.21428,-25.25952 -23,-18.77738 -9.28125,-7.07143 -19.79208,-8.84493 -30.65819,-8.91399 z m 67.03848,53.56696 3.77402,4.27753 -3.40987,4.50372 -4.54464,-1.96912 -0.36415,-4.39063 z"
           style="color:#000000;fill:#ffffff;fill-opacity:1;fill-rule:nonzero;stroke:#ffffff;stroke-width:0;stroke-linecap:round;stroke-linejoin:round;stroke-miterlimit:4;stroke-dasharray:none;marker:none;visibility:visible;display:inline;overflow:visible;enable-background:accumulate" />
      </g>
    </mask>
    <linearGradient
       inkscape:collect="always"
       xlink:href="#linearGradient4048"
       id="linearGradient4130"
       x1="0"
       y1="220"
       x2="550"
       y2="220"
       gradientUnits="userSpaceOnUse" />
  </defs>
  <sodipodi:namedview
     id="base"
     pagecolor="#ffffff"
     bordercolor="#666666"
     borderopacity="1.0"
     inkscape:pageopacity="0.0"
     inkscape:pageshadow="2"
     inkscape:zoom="1.1454545"
     inkscape:cx="275"
     inkscape:cy="220"
     inkscape:document-units="px"
     inkscape:current-layer="layer1"
     showgrid="true"
     inkscape:window-width="1366"
     inkscape:window-height="702"
     inkscape:window-x="0"
     inkscape:window-y="27"
     inkscape:window-maximized="1"
     showguides="true"
     inkscape:guide-bbox="true">
    <inkscape:grid
       type="xygrid"
       id="grid3783"
       empspacing="5"
       visible="true"
       enabled="true"
       snapvisiblegridlinesonly="true" />
    <sodipodi:guide
       orientation="1,0"
       position="120,440"
       id="guide3818" />
    <sodipodi:guide
       orientation="1,0"
       position="430,440"
       id="guide3824" />
    <sodipodi:guide
       orientation="1,0"
       position="220,440"
       id="guide3901" />
    <sodipodi:guide
       orientation="1,0"
       position="330,440"
       id="guide3903" />
  </sodipodi:namedview>
  <metadata
     id="metadata7">
    <rdf:RDF>
      <cc:Work
         rdf:about="">
        <dc:format>image/svg+xml</dc:format>
        <dc:type
           rdf:resource="http://purl.org/dc/dcmitype/StillImage" />
        <dc:title />
      </cc:Work>
    </rdf:RDF>
  </metadata>
  <g
     inkscape:label="Camada 1"
     inkscape:groupmode="layer"
     id="layer1"
     transform="translate(-495.71429,-368.07648)">
    <path
       sodipodi:nodetypes="ccccc"
       inkscape:connector-curvature="0"
       id="rect3785"
       d="m 495.71429,398.07648 c 220,-80 330,80 550.00001,0 l 0,380 c -220.00001,80 -330.00001,-80 -550.00001,0 z"
       style="color:#000000;fill:url(#linearGradient3796);fill-opacity:1;fill-rule:nonzero;stroke:none;stroke-width:80;marker:none;visibility:visible;display:inline;overflow:visible;enable-background:accumulate" />
    <rect
       style="color:#000000;fill:url(#linearGradient4130);fill-opacity:1;fill-rule:nonzero;stroke:none;stroke-width:5;marker:none;visibility:visible;display:inline;overflow:visible;enable-background:accumulate"
       id="rect4066"
       width="550"
       height="240"
       x="0"
       y="100"
       transform="translate(495.71429,368.07648)"
       mask="url(#mask4096)" />
  </g>
</svg>
